Laboratorios/ES1/cmd/ARCHIVO.vcd
$date
	Sun Oct 03 21:41:48 2021
$end
$version
	Icarus Verilog
$end
$timescale
	10ps
$end
$scope module ES1_tb $end
$var wire 4 ! F [3:0] $end
$var reg 3 " A [2:0] $end
$var reg 3 # B [2:0] $end
$var reg 1 $ s0 $end
$var reg 1 % s1 $end
$scope module U0 $end
$var wire 3 & A [2:0] $end
$var wire 3 ' B [2:0] $end
$var wire 1 $ s0 $end
$var wire 1 % s1 $end
$var wire 4 ( w2 [3:0] $end
$var wire 3 ) w1 [2:0] $end
$var wire 4 * F [3:0] $end
$scope module U1 $end
$var wire 3 + A [2:0] $end
$var wire 3 , B [2:0] $end
$var wire 4 - F [3:0] $end
$upscope $end
$scope module U2 $end
$var wire 3 . A [2:0] $end
$var wire 3 / B [2:0] $end
$var wire 1 $ s $end
$var wire 3 0 F [2:0] $end
$upscope $end
$scope module U3 $end
$var wire 3 1 A [2:0] $end
$var wire 4 2 B [3:0] $end
$var wire 1 % s $end
$var wire 4 3 F [3:0] $end
$upscope $end
$upscope $end
$upscope $end
$scope module display $end
$var wire 1 4 A $end
$var wire 1 5 B $end
$var wire 1 6 C $end
$var wire 1 7 D $end
$var wire 1 8 a $end
$var wire 1 9 b $end
$var wire 1 : c $end
$var wire 1 ; d $end
$var wire 1 < e $end
$var wire 1 = f $end
$var wire 1 > g $end
$upscope $end
$enddefinitions $end
#0
$dumpvars
x>
x=
x<
x;
x:
x9
x8
z7
z6
z5
z4
b0 3
b0 2
b0 1
b0 0
b0 /
b0 .
b0 -
b0 ,
b0 +
b0 *
b0 )
b0 (
b0 '
b0 &
0%
0$
b0 #
b0 "
b0 !
$end
#2000
b10 !
b10 *
b10 3
b1 )
b1 0
b1 1
1%
1$
b1 #
b1 '
b1 ,
b1 /
b10 (
b10 -
b10 2
b1 "
b1 &
b1 +
b1 .
#4000
b10 )
b10 0
b10 1
b10 !
b10 *
b10 3
0%
0$
b10 #
b10 '
b10 ,
b10 /
b100 (
b100 -
b100 2
b10 "
b10 &
b10 +
b10 .
#6000
b110 !
b110 *
b110 3
b11 )
b11 0
b11 1
1%
1$
b11 #
b11 '
b11 ,
b11 /
b110 (
b110 -
b110 2
b11 "
b11 &
b11 +
b11 .
#8000
b100 )
b100 0
b100 1
b100 !
b100 *
b100 3
0%
0$
b100 #
b100 '
b100 ,
b100 /
b1000 (
b1000 -
b1000 2
b100 "
b100 &
b100 +
b100 .
#10000
b1010 !
b1010 *
b1010 3
b101 )
b101 0
b101 1
1%
1$
b101 #
b101 '
b101 ,
b101 /
b1010 (
b1010 -
b1010 2
b101 "
b101 &
b101 +
b101 .
#12000
b110 )
b110 0
b110 1
b110 !
b110 *
b110 3
0%
0$
b110 #
b110 '
b110 ,
b110 /
b1100 (
b1100 -
b1100 2
b110 "
b110 &
b110 +
b110 .
#14000
b1110 !
b1110 *
b1110 3
b111 )
b111 0
b111 1
1%
1$
b111 #
b111 '
b111 ,
b111 /
b1110 (
b1110 -
b1110 2
b111 "
b111 &
b111 +
b111 .
