Laboratorios/Parcial2/Codigos/prueba.vcd
$date
	Tue Mar 01 22:31:56 2022
$end
$version
	Icarus Verilog
$end
$timescale
	1ps
$end
$scope module top_tb $end
$var wire 1 ! busy $end
$var wire 9 " F [8:0] $end
$var reg 4 # S [3:0] $end
$var reg 9 $ X [8:0] $end
$var reg 1 % clk $end
$var reg 1 & pause $end
$var reg 1 ' start $end
$scope module top1 $end
$var wire 4 ( S [3:0] $end
$var wire 9 ) X [8:0] $end
$var wire 1 % clk $end
$var wire 1 & pause $end
$var wire 1 ' start $end
$var wire 1 ! busy $end
$var wire 9 * F [8:0] $end
$var wire 1 + E5 $end
$var wire 1 , E4 $end
$var wire 1 - E3 $end
$var wire 1 . E2 $end
$var wire 1 / E1 $end
$var wire 9 0 E [8:0] $end
$var wire 1 1 C52 $end
$var wire 1 2 C51 $end
$var wire 1 3 C502 $end
$var wire 1 4 C501 $end
$var wire 9 5 C50 [8:0] $end
$var wire 9 6 C5 [8:0] $end
$var wire 1 7 C202 $end
$var wire 1 8 C201 $end
$var wire 9 9 C20 [8:0] $end
$var wire 1 : C102 $end
$var wire 1 ; C101 $end
$var wire 9 < C10 [8:0] $end
$scope module Datapath $end
$var wire 9 = X [8:0] $end
$var wire 1 % clk $end
$var wire 9 > wE4 [8:0] $end
$var wire 9 ? wE3 [8:0] $end
$var wire 9 @ wE2 [8:0] $end
$var wire 9 A wE1 [8:0] $end
$var wire 9 B wC51 [8:0] $end
$var wire 9 C wC501 [8:0] $end
$var wire 9 D wC201 [8:0] $end
$var wire 9 E wC101 [8:0] $end
$var wire 9 F nexE [8:0] $end
$var wire 9 G nexC50 [8:0] $end
$var wire 9 H nexC5 [8:0] $end
$var wire 9 I nexC20 [8:0] $end
$var wire 9 J nexC10 [8:0] $end
$var wire 1 + E5 $end
$var wire 1 , E4 $end
$var wire 1 - E3 $end
$var wire 1 . E2 $end
$var wire 1 / E1 $end
$var wire 1 1 C52 $end
$var wire 1 2 C51 $end
$var wire 1 3 C502 $end
$var wire 1 4 C501 $end
$var wire 1 7 C202 $end
$var wire 1 8 C201 $end
$var wire 1 : C102 $end
$var wire 1 ; C101 $end
$var reg 9 K C10 [8:0] $end
$var reg 9 L C20 [8:0] $end
$var reg 9 M C5 [8:0] $end
$var reg 9 N C50 [8:0] $end
$var reg 9 O E [8:0] $end
$upscope $end
$scope module FSM1 $end
$var wire 9 P E [8:0] $end
$var wire 9 Q X [8:0] $end
$var wire 1 % clk $end
$var wire 1 & pause $end
$var wire 1 ' start $end
$var reg 1 ; C101 $end
$var reg 1 : C102 $end
$var reg 1 8 C201 $end
$var reg 1 7 C202 $end
$var reg 1 4 C501 $end
$var reg 1 3 C502 $end
$var reg 1 2 C51 $end
$var reg 1 1 C52 $end
$var reg 1 / E1 $end
$var reg 1 . E2 $end
$var reg 1 - E3 $end
$var reg 1 , E4 $end
$var reg 1 + E5 $end
$var reg 1 ! busy $end
$var reg 4 R futuro [3:0] $end
$var reg 4 S presente [3:0] $end
$upscope $end
$scope module deco1 $end
$var wire 9 T C10 [8:0] $end
$var wire 9 U C20 [8:0] $end
$var wire 9 V C5 [8:0] $end
$var wire 9 W C50 [8:0] $end
$var wire 9 X E [8:0] $end
$var wire 4 Y S [3:0] $end
$var reg 9 Z F [8:0] $end
$upscope $end
$upscope $end
$upscope $end
$enddefinitions $end
#0
$dumpvars
bx Z
b1000 Y
bz X
bx W
bx V
bx U
bx T
b1 S
b1 R
b10000111 Q
bx P
bx O
bx N
bx M
bx L
bx K
b0 J
b0 I
b0 H
b0 G
b10000111 F
bx E
bx D
bx C
bx B
bx A
bx @
bx ?
bx >
b10000111 =
bx <
0;
1:
bx 9
08
17
bx 6
bx 5
04
13
02
11
bx 0
0/
0.
0-
0,
1+
bx *
b10000111 )
b1000 (
0'
0&
0%
b10000111 $
b1000 #
bx "
0!
$end
#5000
b10000111 >
b1110011 ?
b10000111 A
b1110011 @
b0 C
b0 D
b0 E
b0 B
b0 "
b0 *
b0 Z
b10000111 0
b10000111 O
b10000111 P
b0 5
b0 N
b0 W
b0 9
b0 L
b0 U
b0 <
b0 K
b0 T
b0 6
b0 M
b0 V
1%
#10000
b10 R
1'
0%
#15000
1!
b110 R
b10 S
1%
#20000
0'
0%
#25000
b1010101 F
b1010101 >
b1 G
b1 C
b1010101 A
01
0:
07
03
14
0+
1/
b110 S
1%
#30000
0%
#35000
b111 R
b100011 F
b10 G
b100011 >
b1000001 ?
b10 C
b1 "
b1 *
b1 Z
b100011 A
b1000001 @
b1 5
b1 N
b1 W
b1010101 0
b1010101 O
b1010101 P
1%
#40000
0%
#45000
04
0/
b1010 R
b100011 F
b100011 >
b1111 ?
b10 G
b100011 A
b1111 @
b10 C
b11 "
b11 *
b11 Z
b100011 0
b100011 O
b100011 P
b10 5
b10 N
b10 W
b111 S
1%
#50000
0%
#55000
b1 I
b1111 F
b1 D
b1111 >
18
1,
b1000 R
b1010 S
1%
#60000
0%
#65000
08
0,
b1011 R
b1111 F
b1111 >
b111111011 ?
b1 I
b1111 A
b111111011 @
b1 D
b1111 0
b1111 O
b1111 P
b1 9
b1 L
b1 U
b1000 S
1%
#70000
0%
#75000
b1 J
b101 F
b101 ?
b1 E
b101 >
b101 @
1;
1,
1.
b1100 R
b1011 S
1%
#80000
0%
#85000
b1 H
b1 B
12
0;
1-
0.
b1 R
b0 F
b0 >
b0 ?
b1 J
b101 A
b111110001 @
b1 E
b101 0
b101 O
b101 P
b1 <
b1 K
b1 T
b1100 S
1%
#90000
0%
#95000
b0 J
b0 I
b0 G
0!
11
02
1:
17
13
1+
0,
0-
b10000111 F
b0 H
b0 >
b1 B
b0 A
b111101100 @
b111101100 ?
b1 S
b1 6
b1 M
b1 V
b0 0
b0 O
b0 P
1%
#100000
0%
#105000
b10000111 >
b1110011 ?
b10000111 A
b1110011 @
b0 C
b0 D
b0 E
b0 B
b0 "
b0 *
b0 Z
b10000111 0
b10000111 O
b10000111 P
b0 5
b0 N
b0 W
b0 9
b0 L
b0 U
b0 <
b0 K
b0 T
b0 6
b0 M
b0 V
1%
